\select@language {english}
\contentsline {chapter}{\numberline {1}Getting Started}{1}{chapter.1}
\contentsline {section}{\numberline {1.1}Assisting A Handler With Locating Their Username}{1}{section.1.1}
\contentsline {section}{\numberline {1.2}Assisting A Handler With Resetting Their Password}{1}{section.1.2}
\contentsline {section}{\numberline {1.3}Assisting A Handler With Adding a Team (Dog)}{2}{section.1.3}
