\relax 
\providecommand\hyper@newdestlabel[2]{}
\providecommand\HyperFirstAtBeginDocument{\AtBeginDocument}
\HyperFirstAtBeginDocument{\ifx\hyper@anchor\@undefined
\global\let\oldcontentsline\contentsline
\gdef\contentsline#1#2#3#4{\oldcontentsline{#1}{#2}{#3}}
\global\let\oldnewlabel\newlabel
\gdef\newlabel#1#2{\newlabelxx{#1}#2}
\gdef\newlabelxx#1#2#3#4#5#6{\oldnewlabel{#1}{{#2}{#3}}}
\AtEndDocument{\ifx\hyper@anchor\@undefined
\let\contentsline\oldcontentsline
\let\newlabel\oldnewlabel
\fi}
\fi}
\global\let\hyper@last\relax 
\gdef\HyperFirstAtBeginDocument#1{#1}
\providecommand\HyField@AuxAddToFields[1]{}
\providecommand\HyField@AuxAddToCoFields[2]{}
\select@language{english}
\@writefile{toc}{\select@language{english}}
\@writefile{lof}{\select@language{english}}
\@writefile{lot}{\select@language{english}}
\newlabel{index::doc}{{}{1}{}{section*.2}{}}
\@writefile{toc}{\contentsline {chapter}{\numberline {1}Getting Started}{1}{chapter.1}}
\@writefile{lof}{\addvspace {10\p@ }}
\@writefile{lot}{\addvspace {10\p@ }}
\@writefile{loliteral-block}{\addvspace {10\p@ }}
\newlabel{intro:getting-started}{{1}{1}{Getting Started}{chapter.1}{}}
\newlabel{intro:welcome-to-dockdogs-australia-onsite-admin-help-s-documentation}{{1}{1}{Getting Started}{chapter.1}{}}
\newlabel{intro::doc}{{1}{1}{Getting Started}{chapter.1}{}}
\@writefile{toc}{\contentsline {section}{\numberline {1.1}Assisting A Handler With Locating Their Username}{1}{section.1.1}}
\newlabel{intro:assisting-a-handler-with-locating-their-username}{{1.1}{1}{Assisting A Handler With Locating Their Username}{section.1.1}{}}
\@writefile{toc}{\contentsline {section}{\numberline {1.2}Assisting A Handler With Resetting Their Password}{1}{section.1.2}}
\newlabel{intro:assisting-a-handler-with-resetting-their-password}{{1.2}{1}{Assisting A Handler With Resetting Their Password}{section.1.2}{}}
\@writefile{toc}{\contentsline {section}{\numberline {1.3}Assisting A Handler With Adding a Team (Dog)}{2}{section.1.3}}
\newlabel{intro:assisting-a-handler-with-adding-a-team-dog}{{1.3}{2}{Assisting A Handler With Adding a Team (Dog)}{section.1.3}{}}
